{
  "modelVersion" : "2.2",
  "properties" : [
    {
      "label" : "Value",
      "name" : "value",
      "type" : "text",
      "defaultValue" : "This is the initial value",
      "bond" : "expression"
    },
    {
      "label" : "Color",
      "name" : "color",
      "type" : "choice",
      "defaultValue" : "RebeccaPurple",
      "choiceValues" : [
        "RebeccaPurple",
        "Chartreuse",
        "Tomato",
        "DeepSkyBlue"
      ],
      "bond" : "expression"
    },
    {
      "label" : "Background color on click",
      "name" : "background",
      "type" : "choice",
      "defaultValue" : "Yellow",
      "choiceValues" : [
        "Yellow",
        "LightGray"
      ],
      "bond" : "expression"
    },
    {
      "label" : "Campaign",
      "name" : "campaign",
      "type" : "text",
      "bond" : "variable"
    },
    {
      "label" : "User Id",
      "name" : "userId",
      "type" : "text",
      "bond" : "expression"
    },
    {
      "label" : "User Name",
      "name" : "userName",
      "type" : "text",
      "bond" : "expression"
    }
  ],
  "id" : "customComelecpage",
  "name" : "comelecpage",
  "lastUpdate" : 1636803497652,
  "template" : "@customComelecpage.tpl.html",
  "controller" : "@customComelecpage.ctrl.js",
  "custom" : true,
  "assets" : [
    {
      "id" : "994f0736-9ff7-4de0-8157-f6ecaf20ec3a",
      "name" : "clear.png",
      "type" : "img",
      "order" : 12,
      "external" : false
    },
    {
      "id" : "659ea767-13bf-4bba-a59f-a32afc87e2da",
      "name" : "done.png",
      "type" : "img",
      "order" : 8,
      "external" : false
    },
    {
      "id" : "001c8b7d-0849-4ff1-9d99-153012d44f4e",
      "name" : "keyboard_arrow_down.png",
      "type" : "img",
      "order" : 11,
      "external" : false
    },
    {
      "id" : "3f4e9e09-a91c-4571-a0f5-7ecc13d34886",
      "name" : "add.png",
      "type" : "img",
      "order" : 5,
      "external" : false
    },
    {
      "id" : "03dd551c-f9f7-4764-9146-725c2ac56a6c",
      "name" : "https://cdn.jsdelivr.net/npm/bootstrap@5.1.3/dist/css/bootstrap.min.css",
      "type" : "css",
      "order" : 1,
      "external" : true
    },
    {
      "id" : "f0c2f904-3f9a-4730-9fd1-1d84fbcb1d57",
      "name" : "pstyle1.css",
      "type" : "css",
      "order" : 4,
      "external" : false
    },
    {
      "id" : "6055ce97-ac99-4b41-914a-6c37c7292a08",
      "name" : "arrow_back.png",
      "type" : "img",
      "order" : 6,
      "external" : false
    },
    {
      "id" : "4b8ff4d5-e96c-4e10-a231-d3d6243b8ff5",
      "name" : "expand_more.png",
      "type" : "img",
      "order" : 10,
      "external" : false
    },
    {
      "id" : "d2136383-ffed-4f65-93fb-e453321bbfa2",
      "name" : "info.png",
      "type" : "img",
      "order" : 13,
      "external" : false
    },
    {
      "id" : "cc7e72ae-7037-4080-bb78-bfe607cbd3de",
      "name" : "description.png",
      "type" : "img",
      "order" : 7,
      "external" : false
    },
    {
      "id" : "909ceb96-b767-432d-8c15-2cb0a2c2f051",
      "name" : "Ellipse 6.png",
      "type" : "img",
      "order" : 9,
      "external" : false
    },
    {
      "id" : "c89d3f77-86d0-42d0-afb2-4e1793dc2943",
      "name" : "https://cdnjs.cloudflare.com/ajax/libs/jquery/1.11.3/jquery.min.js",
      "type" : "js",
      "order" : 2,
      "external" : true
    },
    {
      "id" : "353330a7-f084-4f00-9c22-fcaa12e33395",
      "name" : "https://maxcdn.bootstrapcdn.com/bootstrap/4.0.0/js/bootstrap.min.js",
      "type" : "js",
      "order" : 3,
      "external" : true
    }
  ],
  "requiredModules" : [ ],
  "type" : "widget",
  "hasHelp" : false
}