{
  "modelVersion" : "2.2",
  "id" : "uploadOR",
  "name" : "uploadOR",
  "lastUpdate" : 1636730886253,
  "rows" : [
    [
      {
        "type" : "container",
        "dimension" : {
          "xs" : 12
        },
        "propertyValues" : {
          "cssClasses" : {
            "type" : "constant",
            "value" : ""
          },
          "hidden" : {
            "type" : "constant",
            "value" : false
          },
          "repeatedCollection" : {
            "type" : "variable",
            "value" : ""
          }
        },
        "reference" : "ff68955a-8ee4-45e3-9fc2-fbeefdc4b972",
        "hasValidationError" : false,
        "id" : "pbContainer",
        "rows" : [
          [
            {
              "type" : "component",
              "dimension" : {
                "xs" : 12,
                "sm" : 12,
                "md" : 12,
                "lg" : 12
              },
              "propertyValues" : {
                "cssClasses" : {
                  "type" : "constant",
                  "value" : ""
                },
                "hidden" : {
                  "type" : "constant",
                  "value" : false
                },
                "value" : {
                  "type" : "constant",
                  "value" : "This is the initial value"
                },
                "color" : {
                  "type" : "constant",
                  "value" : "RebeccaPurple"
                },
                "background" : {
                  "type" : "constant",
                  "value" : "Yellow"
                },
                "campaign" : {
                  "type" : "variable",
                  "value" : "campaignDummy"
                },
                "userId" : {
                  "type" : "expression",
                  "value" : "user.user_id"
                },
                "userName" : {
                  "type" : "expression",
                  "value" : "user.user_name"
                },
                "taskId" : {
                  "type" : "expression",
                  "value" : "taskId"
                }
              },
              "reference" : "5cf6ffa0-49ca-4c44-b465-16aafa446897",
              "hasValidationError" : false,
              "id" : "customUploadOfficialReceipt"
            }
          ]
        ]
      }
    ]
  ],
  "assets" : [
    {
      "id" : "d73ed580-03ac-4013-95f0-22918ca941c5",
      "name" : "style.css",
      "type" : "css",
      "order" : 0,
      "external" : false
    },
    {
      "id" : "f45eb4f4-0dc6-4e39-a72a-5a6917a3cf3a",
      "name" : "localization.json",
      "type" : "json",
      "order" : 0,
      "external" : false
    }
  ],
  "inactiveAssets" : [ ],
  "variables" : {
    "task" : {
      "type" : "url",
      "value" : [
        "../API/bpm/userTask/{{taskId}}"
      ],
      "exposed" : false
    },
    "submit_errors_list" : {
      "type" : "expression",
      "value" : [
        "if($data.formOutput && $data.formOutput._submitError && $data.formOutput._submitError.explanations){",
        "\tconst liElements = $data.formOutput._submitError.explanations",
        "\t\t.filter(cause => cause !== null)",
        "\t\t.map(cause => \"<li>\" + cause + \"</li>\")",
        "\t\t.join('');",
        "\tif(liElements){",
        "\t\treturn \"<ul>\" + liElements + \"</ul>\";",
        "\t}",
        "}"
      ],
      "exposed" : false
    },
    "formOutput" : {
      "type" : "expression",
      "value" : [
        "return {",
        "",
        "}"
      ],
      "exposed" : false
    },
    "context" : {
      "type" : "url",
      "value" : [
        "../API/bpm/userTask/{{taskId}}/context"
      ],
      "exposed" : false
    },
    "taskId" : {
      "type" : "urlparameter",
      "value" : [
        "id"
      ],
      "exposed" : false
    },
    "campaign" : {
      "type" : "url",
      "value" : [
        "../{{context.campaign_ref.link}}"
      ],
      "advancedOptions" : { },
      "exposed" : false
    },
    "user" : {
      "type" : "url",
      "value" : [
        "../API/system/session/1"
      ],
      "advancedOptions" : { },
      "exposed" : false
    },
    "campaignDummy" : {
      "type" : "json",
      "value" : [
        "{\"persistenceId\":4,\"persistenceId_string\":\"4\",\"persistenceVersion\":0,\"persistenceVersion_string\":\"0\",\"campaignId\":\"1019\",\"campaignName\":\"ADVENTIST HOSPITAL - SANTIAGO CITY\",\"positionCode\":null,\"startDate\":\"08/11/2021\",\"endDate\":\"12/11/2021\",\"clientReferenceNumber\":\"SPH-203-2303-2K\",\"advertiserName\":\"ADVENTIST HOSPITAL - SANTIAGO CITY \",\"adType\":\"TV\",\"agency\":\"walter.bates\",\"airingChannel\":\"National,State\",\"placementFrom\":\"National\",\"payment\":{\"persistenceId\":3,\"persistenceId_string\":\"3\",\"persistenceVersion\":0,\"persistenceVersion_string\":\"0\",\"paymentId\":null,\"campaignId\":null,\"advertiserName\":null,\"clientReferenceNumber\":null,\"status\":null,\"paymentDate\":null,\"creditWithHoldingTax\":null,\"totalPayableAmount\":null,\"totalPayableAmount_string\":null,\"amount\":null,\"amount_string\":null,\"officialReceiptNumber\":null,\"updateBy\":null,\"updateOn\":null,\"createdBy\":null,\"createdOn\":null},\"primaryCandidateName\":\"Panfilo Lacson\",\"creative\":[],\"recievedDate\":null,\"status\":\"In Progress\",\"aEInternalStatus\":\"In Progress\",\"stratInternalStatus\":\"\",\"updatedBy\":null,\"updatedOn\":null,\"createdBy\":null,\"createdOn\":\"2021-11-08T16:42:11.0383704Z\"}"
      ],
      "exposed" : false
    }
  },
  "hasValidationError" : false,
  "uuid" : "ee2cf73e-5770-4eb4-be44-e5bc499d8d03",
  "type" : "form",
  "description" : "Page generated with Bonita UI designer"
}